Projections of a bipartite network — projections • binet
…
#> 0 threshold...
#> 0.25 threshold...
#> 0.5 threshold...
#> 0.75 threshold...
#> 1 threshold...
#> no threshold achieves the avg number of connections for X projection, returning maximum spanning tree
#> Computing Y projection...
#> 0 threshold...
#> 0.25 threshold...
#> 0.5 threshold...
#> 0.75 threshold...
#> 1 threshold...
#> no threshold achieves the avg number of connections for Y projection, returning maximum spanning tree
#> $network_x
#> # A tibble: 157 x 3
#>    from  to     value
#>    <chr> <chr>  <dbl>
#>  1 irn   afg   -0.5  
#>  2 npl   afg   -0.214
#>  3 syr   afg   -0.357
#>  4 ago   ben   -0.339
#>  5 ago   per   -0.358
#>  6 ago   sen   -0.308
#>  7 irn   alb   -0.375
#>  8 sur   and   -0.130
#>  9 bhr   ant   -0.312
#> 10 sur   ant   -0.304
#> # … with 147 more rows
#> 
#> $network_y
#> # A tibble: 990 x 3
#>    from  to     value
#>    <chr> <chr>  <dbl>
#>  1 9614  0101  -0.579
#>  2 0102  0104  -0.423
#>  3 0102  0201  -0.5  
#>  4 0103  0505  -0.647
#>  5 1102  0105  -0.417
#>  6 4803  0105  -0.417
#>  7 0106  1302  -0.514
#>  8 0201  0208  -0.619
#>  9 0201  0210  -0.524
#> 10 0201  0409  -0.571
#> # … with 980 more rows
…
